%YAML 1.1
%TAG !u! tag:unity3d.com,2011:
--- !u!1 &7799586437556647031
GameObject:
  m_ObjectHideFlags: 0
  m_CorrespondingSourceObject: {fileID: 0}
  m_PrefabInstance: {fileID: 0}
  m_PrefabAsset: {fileID: 0}
  serializedVersion: 6
  m_Component:
  - component: {fileID: 7799586437556647028}
  - component: {fileID: 7799586437556647029}
  m_Layer: 0
  m_Name: BubblePool
  m_TagString: BubblePool
  m_Icon: {fileID: 0}
  m_NavMeshLayer: 0
  m_StaticEditorFlags: 0
  m_IsActive: 1
--- !u!4 &7799586437556647028
Transform:
  m_ObjectHideFlags: 0
  m_CorrespondingSourceObject: {fileID: 0}
  m_PrefabInstance: {fileID: 0}
  m_PrefabAsset: {fileID: 0}
  m_GameObject: {fileID: 7799586437556647031}
  m_LocalRotation: {x: -0, y: 0.7071068, z: -0, w: 0.7071068}
  m_LocalPosition: {x: 295.7888, y: -587.32245, z: -1109.1146}
  m_LocalScale: {x: 1, y: 2.5187497, z: 2.5187564}
  m_Children: []
  m_Father: {fileID: 0}
  m_RootOrder: 0
  m_LocalEulerAnglesHint: {x: 0, y: 0, z: 0}
--- !u!114 &7799586437556647029
MonoBehaviour:
  m_ObjectHideFlags: 0
  m_CorrespondingSourceObject: {fileID: 0}
  m_PrefabInstance: {fileID: 0}
  m_PrefabAsset: {fileID: 0}
  m_GameObject: {fileID: 7799586437556647031}
  m_Enabled: 1
  m_EditorHideFlags: 0
  m_Script: {fileID: 11500000, guid: 36b3eb4b7c7c7794b98495c603261f1a, type: 3}
  m_Name: 
  m_EditorClassIdentifier: 
  bubble:
  - {fileID: 7035262982532299017, guid: e810034f30d47dd42a101df5cbcb57e0, type: 3}
  - {fileID: 7891447557599237767, guid: ccfbc76f3c1b7514d834ae3eeb0d8a25, type: 3}
  initailSize: 5000
