%YAML 1.1
%TAG !u! tag:unity3d.com,2011:
--- !u!1 &6470839750016071203
GameObject:
  m_ObjectHideFlags: 0
  m_CorrespondingSourceObject: {fileID: 0}
  m_PrefabInstance: {fileID: 0}
  m_PrefabAsset: {fileID: 0}
  serializedVersion: 6
  m_Component:
  - component: {fileID: 6470839750016071201}
  - component: {fileID: 6470839750016071202}
  m_Layer: 0
  m_Name: FightSystem
  m_TagString: Untagged
  m_Icon: {fileID: 0}
  m_NavMeshLayer: 0
  m_StaticEditorFlags: 0
  m_IsActive: 1
--- !u!4 &6470839750016071201
Transform:
  m_ObjectHideFlags: 0
  m_CorrespondingSourceObject: {fileID: 0}
  m_PrefabInstance: {fileID: 0}
  m_PrefabAsset: {fileID: 0}
  m_GameObject: {fileID: 6470839750016071203}
  m_LocalRotation: {x: 0, y: 0, z: 0, w: 1}
  m_LocalPosition: {x: 0.2992211, y: 0.9417293, z: -0.44162655}
  m_LocalScale: {x: 1, y: 1, z: 1}
  m_Children: []
  m_Father: {fileID: 0}
  m_RootOrder: 0
  m_LocalEulerAnglesHint: {x: 0, y: 0, z: 0}
--- !u!114 &6470839750016071202
MonoBehaviour:
  m_ObjectHideFlags: 0
  m_CorrespondingSourceObject: {fileID: 0}
  m_PrefabInstance: {fileID: 0}
  m_PrefabAsset: {fileID: 0}
  m_GameObject: {fileID: 6470839750016071203}
  m_Enabled: 1
  m_EditorHideFlags: 0
  m_Script: {fileID: 11500000, guid: 862cfa3425fcd854d9e396435d5082d7, type: 3}
  m_Name: 
  m_EditorClassIdentifier: 
  damages: 64000000c80000002c01000090010000f4010000
  state: {fileID: 0}
  input: {fileID: 0}
  enemyObj: {fileID: 0}
  attack: 0
  Controller: {fileID: 0}
  weapeon: {fileID: 0}
  weapCol: {fileID: 0}
  enemyCol: {fileID: 0}
  damage: 100
  enemyData: {fileID: 0}
