%YAML 1.1
%TAG !u! tag:unity3d.com,2011:
--- !u!181963792 &2655988077585873504
Preset:
  m_ObjectHideFlags: 0
  m_CorrespondingSourceObject: {fileID: 0}
  m_PrefabInstance: {fileID: 0}
  m_PrefabAsset: {fileID: 0}
  m_Name: InputManager
  m_TargetType:
    m_NativeTypeID: 13
    m_ManagedTypePPtr: {fileID: 0}
    m_ManagedTypeFallback: 
  m_Properties:
  - target: {fileID: 0}
    propertyPath: m_Axes.Array.size
    value: 36
    objectReference: {fileID: 0}
  - target: {fileID: 0}
    propertyPath: m_Axes.Array.data[0].m_Name
    value: Horizontal
    objectReference: {fileID: 0}
  - target: {fileID: 0}
    propertyPath: m_Axes.Array.data[0].descriptiveName
    value: 
    objectReference: {fileID: 0}
  - target: {fileID: 0}
    propertyPath: m_Axes.Array.data[0].descriptiveNegativeName
    value: 
    objectReference: {fileID: 0}
  - target: {fileID: 0}
    propertyPath: m_Axes.Array.data[0].negativeButton
    value: left
    objectReference: {fileID: 0}
  - target: {fileID: 0}
    propertyPath: m_Axes.Array.data[0].positiveButton
    value: right
    objectReference: {fileID: 0}
  - target: {fileID: 0}
    propertyPath: m_Axes.Array.data[0].altNegativeButton
    value: a
    objectReference: {fileID: 0}
  - target: {fileID: 0}
    propertyPath: m_Axes.Array.data[0].altPositiveButton
    value: d
    objectReference: {fileID: 0}
  - target: {fileID: 0}
    propertyPath: m_Axes.Array.data[0].gravity
    value: 3
    objectReference: {fileID: 0}
  - target: {fileID: 0}
    propertyPath: m_Axes.Array.data[0].dead
    value: 0.001
    objectReference: {fileID: 0}
  - target: {fileID: 0}
    propertyPath: m_Axes.Array.data[0].sensitivity
    value: 3
    objectReference: {fileID: 0}
  - target: {fileID: 0}
    propertyPath: m_Axes.Array.data[0].snap
    value: 1
    objectReference: {fileID: 0}
  - target: {fileID: 0}
    propertyPath: m_Axes.Array.data[0].invert
    value: 0
    objectReference: {fileID: 0}
  - target: {fileID: 0}
    propertyPath: m_Axes.Array.data[0].type
    value: 0
    objectReference: {fileID: 0}
  - target: {fileID: 0}
    propertyPath: m_Axes.Array.data[0].axis
    value: 0
    objectReference: {fileID: 0}
  - target: {fileID: 0}
    propertyPath: m_Axes.Array.data[0].joyNum
    value: 0
    objectReference: {fileID: 0}
  - target: {fileID: 0}
    propertyPath: m_Axes.Array.data[1].m_Name
    value: Vertical
    objectReference: {fileID: 0}
  - target: {fileID: 0}
    propertyPath: m_Axes.Array.data[1].descriptiveName
    value: 
    objectReference: {fileID: 0}
  - target: {fileID: 0}
    propertyPath: m_Axes.Array.data[1].descriptiveNegativeName
    value: 
    objectReference: {fileID: 0}
  - target: {fileID: 0}
    propertyPath: m_Axes.Array.data[1].negativeButton
    value: down
    objectReference: {fileID: 0}
  - target: {fileID: 0}
    propertyPath: m_Axes.Array.data[1].positiveButton
    value: up
    objectReference: {fileID: 0}
  - target: {fileID: 0}
    propertyPath: m_Axes.Array.data[1].altNegativeButton
    value: s
    objectReference: {fileID: 0}
  - target: {fileID: 0}
    propertyPath: m_Axes.Array.data[1].altPositiveButton
    value: w
    objectReference: {fileID: 0}
  - target: {fileID: 0}
    propertyPath: m_Axes.Array.data[1].gravity
    value: 3
    objectReference: {fileID: 0}
  - target: {fileID: 0}
    propertyPath: m_Axes.Array.data[1].dead
    value: 0.001
    objectReference: {fileID: 0}
  - target: {fileID: 0}
    propertyPath: m_Axes.Array.data[1].sensitivity
    value: 3
    objectReference: {fileID: 0}
  - target: {fileID: 0}
    propertyPath: m_Axes.Array.data[1].snap
    value: 1
    objectReference: {fileID: 0}
  - target: {fileID: 0}
    propertyPath: m_Axes.Array.data[1].invert
    value: 0
    objectReference: {fileID: 0}
  - target: {fileID: 0}
    propertyPath: m_Axes.Array.data[1].type
    value: 0
    objectReference: {fileID: 0}
  - target: {fileID: 0}
    propertyPath: m_Axes.Array.data[1].axis
    value: 0
    objectReference: {fileID: 0}
  - target: {fileID: 0}
    propertyPath: m_Axes.Array.data[1].joyNum
    value: 0
    objectReference: {fileID: 0}
  - target: {fileID: 0}
    propertyPath: m_Axes.Array.data[2].m_Name
    value: RT
    objectReference: {fileID: 0}
  - target: {fileID: 0}
    propertyPath: m_Axes.Array.data[2].descriptiveName
    value: 
    objectReference: {fileID: 0}
  - target: {fileID: 0}
    propertyPath: m_Axes.Array.data[2].descriptiveNegativeName
    value: 
    objectReference: {fileID: 0}
  - target: {fileID: 0}
    propertyPath: m_Axes.Array.data[2].negativeButton
    value: 
    objectReference: {fileID: 0}
  - target: {fileID: 0}
    propertyPath: m_Axes.Array.data[2].positiveButton
    value: r
    objectReference: {fileID: 0}
  - target: {fileID: 0}
    propertyPath: m_Axes.Array.data[2].altNegativeButton
    value: 
    objectReference: {fileID: 0}
  - target: {fileID: 0}
    propertyPath: m_Axes.Array.data[2].altPositiveButton
    value: 
    objectReference: {fileID: 0}
  - target: {fileID: 0}
    propertyPath: m_Axes.Array.data[2].gravity
    value: 3
    objectReference: {fileID: 0}
  - target: {fileID: 0}
    propertyPath: m_Axes.Array.data[2].dead
    value: 0.001
    objectReference: {fileID: 0}
  - target: {fileID: 0}
    propertyPath: m_Axes.Array.data[2].sensitivity
    value: 3
    objectReference: {fileID: 0}
  - target: {fileID: 0}
    propertyPath: m_Axes.Array.data[2].snap
    value: 1
    objectReference: {fileID: 0}
  - target: {fileID: 0}
    propertyPath: m_Axes.Array.data[2].invert
    value: 0
    objectReference: {fileID: 0}
  - target: {fileID: 0}
    propertyPath: m_Axes.Array.data[2].type
    value: 0
    objectReference: {fileID: 0}
  - target: {fileID: 0}
    propertyPath: m_Axes.Array.data[2].axis
    value: 0
    objectReference: {fileID: 0}
  - target: {fileID: 0}
    propertyPath: m_Axes.Array.data[2].joyNum
    value: 0
    objectReference: {fileID: 0}
  - target: {fileID: 0}
    propertyPath: m_Axes.Array.data[3].m_Name
    value: LT
    objectReference: {fileID: 0}
  - target: {fileID: 0}
    propertyPath: m_Axes.Array.data[3].descriptiveName
    value: 
    objectReference: {fileID: 0}
  - target: {fileID: 0}
    propertyPath: m_Axes.Array.data[3].descriptiveNegativeName
    value: 
    objectReference: {fileID: 0}
  - target: {fileID: 0}
    propertyPath: m_Axes.Array.data[3].negativeButton
    value: 
    objectReference: {fileID: 0}
  - target: {fileID: 0}
    propertyPath: m_Axes.Array.data[3].positiveButton
    value: c
    objectReference: {fileID: 0}
  - target: {fileID: 0}
    propertyPath: m_Axes.Array.data[3].altNegativeButton
    value: 
    objectReference: {fileID: 0}
  - target: {fileID: 0}
    propertyPath: m_Axes.Array.data[3].altPositiveButton
    value: 
    objectReference: {fileID: 0}
  - target: {fileID: 0}
    propertyPath: m_Axes.Array.data[3].gravity
    value: 3
    objectReference: {fileID: 0}
  - target: {fileID: 0}
    propertyPath: m_Axes.Array.data[3].dead
    value: 0.001
    objectReference: {fileID: 0}
  - target: {fileID: 0}
    propertyPath: m_Axes.Array.data[3].sensitivity
    value: 3
    objectReference: {fileID: 0}
  - target: {fileID: 0}
    propertyPath: m_Axes.Array.data[3].snap
    value: 1
    objectReference: {fileID: 0}
  - target: {fileID: 0}
    propertyPath: m_Axes.Array.data[3].invert
    value: 0
    objectReference: {fileID: 0}
  - target: {fileID: 0}
    propertyPath: m_Axes.Array.data[3].type
    value: 0
    objectReference: {fileID: 0}
  - target: {fileID: 0}
    propertyPath: m_Axes.Array.data[3].axis
    value: 0
    objectReference: {fileID: 0}
  - target: {fileID: 0}
    propertyPath: m_Axes.Array.data[3].joyNum
    value: 0
    objectReference: {fileID: 0}
  - target: {fileID: 0}
    propertyPath: m_Axes.Array.data[4].m_Name
    value: RB
    objectReference: {fileID: 0}
  - target: {fileID: 0}
    propertyPath: m_Axes.Array.data[4].descriptiveName
    value: 
    objectReference: {fileID: 0}
  - target: {fileID: 0}
    propertyPath: m_Axes.Array.data[4].descriptiveNegativeName
    value: 
    objectReference: {fileID: 0}
  - target: {fileID: 0}
    propertyPath: m_Axes.Array.data[4].negativeButton
    value: 
    objectReference: {fileID: 0}
  - target: {fileID: 0}
    propertyPath: m_Axes.Array.data[4].positiveButton
    value: left ctrl
    objectReference: {fileID: 0}
  - target: {fileID: 0}
    propertyPath: m_Axes.Array.data[4].altNegativeButton
    value: 
    objectReference: {fileID: 0}
  - target: {fileID: 0}
    propertyPath: m_Axes.Array.data[4].altPositiveButton
    value: mouse 0
    objectReference: {fileID: 0}
  - target: {fileID: 0}
    propertyPath: m_Axes.Array.data[4].gravity
    value: 1000
    objectReference: {fileID: 0}
  - target: {fileID: 0}
    propertyPath: m_Axes.Array.data[4].dead
    value: 0.001
    objectReference: {fileID: 0}
  - target: {fileID: 0}
    propertyPath: m_Axes.Array.data[4].sensitivity
    value: 1000
    objectReference: {fileID: 0}
  - target: {fileID: 0}
    propertyPath: m_Axes.Array.data[4].snap
    value: 0
    objectReference: {fileID: 0}
  - target: {fileID: 0}
    propertyPath: m_Axes.Array.data[4].invert
    value: 0
    objectReference: {fileID: 0}
  - target: {fileID: 0}
    propertyPath: m_Axes.Array.data[4].type
    value: 0
    objectReference: {fileID: 0}
  - target: {fileID: 0}
    propertyPath: m_Axes.Array.data[4].axis
    value: 0
    objectReference: {fileID: 0}
  - target: {fileID: 0}
    propertyPath: m_Axes.Array.data[4].joyNum
    value: 0
    objectReference: {fileID: 0}
  - target: {fileID: 0}
    propertyPath: m_Axes.Array.data[5].m_Name
    value: Fire2
    objectReference: {fileID: 0}
  - target: {fileID: 0}
    propertyPath: m_Axes.Array.data[5].descriptiveName
    value: 
    objectReference: {fileID: 0}
  - target: {fileID: 0}
    propertyPath: m_Axes.Array.data[5].descriptiveNegativeName
    value: 
    objectReference: {fileID: 0}
  - target: {fileID: 0}
    propertyPath: m_Axes.Array.data[5].negativeButton
    value: 
    objectReference: {fileID: 0}
  - target: {fileID: 0}
    propertyPath: m_Axes.Array.data[5].positiveButton
    value: left alt
    objectReference: {fileID: 0}
  - target: {fileID: 0}
    propertyPath: m_Axes.Array.data[5].altNegativeButton
    value: 
    objectReference: {fileID: 0}
  - target: {fileID: 0}
    propertyPath: m_Axes.Array.data[5].altPositiveButton
    value: mouse 1
    objectReference: {fileID: 0}
  - target: {fileID: 0}
    propertyPath: m_Axes.Array.data[5].gravity
    value: 1000
    objectReference: {fileID: 0}
  - target: {fileID: 0}
    propertyPath: m_Axes.Array.data[5].dead
    value: 0.001
    objectReference: {fileID: 0}
  - target: {fileID: 0}
    propertyPath: m_Axes.Array.data[5].sensitivity
    value: 1000
    objectReference: {fileID: 0}
  - target: {fileID: 0}
    propertyPath: m_Axes.Array.data[5].snap
    value: 0
    objectReference: {fileID: 0}
  - target: {fileID: 0}
    propertyPath: m_Axes.Array.data[5].invert
    value: 0
    objectReference: {fileID: 0}
  - target: {fileID: 0}
    propertyPath: m_Axes.Array.data[5].type
    value: 0
    objectReference: {fileID: 0}
  - target: {fileID: 0}
    propertyPath: m_Axes.Array.data[5].axis
    value: 0
    objectReference: {fileID: 0}
  - target: {fileID: 0}
    propertyPath: m_Axes.Array.data[5].joyNum
    value: 0
    objectReference: {fileID: 0}
  - target: {fileID: 0}
    propertyPath: m_Axes.Array.data[6].m_Name
    value: L
    objectReference: {fileID: 0}
  - target: {fileID: 0}
    propertyPath: m_Axes.Array.data[6].descriptiveName
    value: 
    objectReference: {fileID: 0}
  - target: {fileID: 0}
    propertyPath: m_Axes.Array.data[6].descriptiveNegativeName
    value: 
    objectReference: {fileID: 0}
  - target: {fileID: 0}
    propertyPath: m_Axes.Array.data[6].negativeButton
    value: 
    objectReference: {fileID: 0}
  - target: {fileID: 0}
    propertyPath: m_Axes.Array.data[6].positiveButton
    value: t
    objectReference: {fileID: 0}
  - target: {fileID: 0}
    propertyPath: m_Axes.Array.data[6].altNegativeButton
    value: 
    objectReference: {fileID: 0}
  - target: {fileID: 0}
    propertyPath: m_Axes.Array.data[6].altPositiveButton
    value: 
    objectReference: {fileID: 0}
  - target: {fileID: 0}
    propertyPath: m_Axes.Array.data[6].gravity
    value: 1000
    objectReference: {fileID: 0}
  - target: {fileID: 0}
    propertyPath: m_Axes.Array.data[6].dead
    value: 0.001
    objectReference: {fileID: 0}
  - target: {fileID: 0}
    propertyPath: m_Axes.Array.data[6].sensitivity
    value: 1000
    objectReference: {fileID: 0}
  - target: {fileID: 0}
    propertyPath: m_Axes.Array.data[6].snap
    value: 0
    objectReference: {fileID: 0}
  - target: {fileID: 0}
    propertyPath: m_Axes.Array.data[6].invert
    value: 0
    objectReference: {fileID: 0}
  - target: {fileID: 0}
    propertyPath: m_Axes.Array.data[6].type
    value: 0
    objectReference: {fileID: 0}
  - target: {fileID: 0}
    propertyPath: m_Axes.Array.data[6].axis
    value: 0
    objectReference: {fileID: 0}
  - target: {fileID: 0}
    propertyPath: m_Axes.Array.data[6].joyNum
    value: 0
    objectReference: {fileID: 0}
  - target: {fileID: 0}
    propertyPath: m_Axes.Array.data[7].m_Name
    value: Fire3
    objectReference: {fileID: 0}
  - target: {fileID: 0}
    propertyPath: m_Axes.Array.data[7].descriptiveName
    value: 
    objectReference: {fileID: 0}
  - target: {fileID: 0}
    propertyPath: m_Axes.Array.data[7].descriptiveNegativeName
    value: 
    objectReference: {fileID: 0}
  - target: {fileID: 0}
    propertyPath: m_Axes.Array.data[7].negativeButton
    value: 
    objectReference: {fileID: 0}
  - target: {fileID: 0}
    propertyPath: m_Axes.Array.data[7].positiveButton
    value: left shift
    objectReference: {fileID: 0}
  - target: {fileID: 0}
    propertyPath: m_Axes.Array.data[7].altNegativeButton
    value: 
    objectReference: {fileID: 0}
  - target: {fileID: 0}
    propertyPath: m_Axes.Array.data[7].altPositiveButton
    value: mouse 2
    objectReference: {fileID: 0}
  - target: {fileID: 0}
    propertyPath: m_Axes.Array.data[7].gravity
    value: 1000
    objectReference: {fileID: 0}
  - target: {fileID: 0}
    propertyPath: m_Axes.Array.data[7].dead
    value: 0.001
    objectReference: {fileID: 0}
  - target: {fileID: 0}
    propertyPath: m_Axes.Array.data[7].sensitivity
    value: 1000
    objectReference: {fileID: 0}
  - target: {fileID: 0}
    propertyPath: m_Axes.Array.data[7].snap
    value: 0
    objectReference: {fileID: 0}
  - target: {fileID: 0}
    propertyPath: m_Axes.Array.data[7].invert
    value: 0
    objectReference: {fileID: 0}
  - target: {fileID: 0}
    propertyPath: m_Axes.Array.data[7].type
    value: 0
    objectReference: {fileID: 0}
  - target: {fileID: 0}
    propertyPath: m_Axes.Array.data[7].axis
    value: 0
    objectReference: {fileID: 0}
  - target: {fileID: 0}
    propertyPath: m_Axes.Array.data[7].joyNum
    value: 0
    objectReference: {fileID: 0}
  - target: {fileID: 0}
    propertyPath: m_Axes.Array.data[8].m_Name
    value: b_input
    objectReference: {fileID: 0}
  - target: {fileID: 0}
    propertyPath: m_Axes.Array.data[8].descriptiveName
    value: 
    objectReference: {fileID: 0}
  - target: {fileID: 0}
    propertyPath: m_Axes.Array.data[8].descriptiveNegativeName
    value: 
    objectReference: {fileID: 0}
  - target: {fileID: 0}
    propertyPath: m_Axes.Array.data[8].negativeButton
    value: 
    objectReference: {fileID: 0}
  - target: {fileID: 0}
    propertyPath: m_Axes.Array.data[8].positiveButton
    value: left shift
    objectReference: {fileID: 0}
  - target: {fileID: 0}
    propertyPath: m_Axes.Array.data[8].altNegativeButton
    value: 
    objectReference: {fileID: 0}
  - target: {fileID: 0}
    propertyPath: m_Axes.Array.data[8].altPositiveButton
    value: mouse 2
    objectReference: {fileID: 0}
  - target: {fileID: 0}
    propertyPath: m_Axes.Array.data[8].gravity
    value: 1000
    objectReference: {fileID: 0}
  - target: {fileID: 0}
    propertyPath: m_Axes.Array.data[8].dead
    value: 0.001
    objectReference: {fileID: 0}
  - target: {fileID: 0}
    propertyPath: m_Axes.Array.data[8].sensitivity
    value: 1000
    objectReference: {fileID: 0}
  - target: {fileID: 0}
    propertyPath: m_Axes.Array.data[8].snap
    value: 0
    objectReference: {fileID: 0}
  - target: {fileID: 0}
    propertyPath: m_Axes.Array.data[8].invert
    value: 0
    objectReference: {fileID: 0}
  - target: {fileID: 0}
    propertyPath: m_Axes.Array.data[8].type
    value: 0
    objectReference: {fileID: 0}
  - target: {fileID: 0}
    propertyPath: m_Axes.Array.data[8].axis
    value: 0
    objectReference: {fileID: 0}
  - target: {fileID: 0}
    propertyPath: m_Axes.Array.data[8].joyNum
    value: 0
    objectReference: {fileID: 0}
  - target: {fileID: 0}
    propertyPath: m_Axes.Array.data[9].m_Name
    value: Jump
    objectReference: {fileID: 0}
  - target: {fileID: 0}
    propertyPath: m_Axes.Array.data[9].descriptiveName
    value: 
    objectReference: {fileID: 0}
  - target: {fileID: 0}
    propertyPath: m_Axes.Array.data[9].descriptiveNegativeName
    value: 
    objectReference: {fileID: 0}
  - target: {fileID: 0}
    propertyPath: m_Axes.Array.data[9].negativeButton
    value: 
    objectReference: {fileID: 0}
  - target: {fileID: 0}
    propertyPath: m_Axes.Array.data[9].positiveButton
    value: space
    objectReference: {fileID: 0}
  - target: {fileID: 0}
    propertyPath: m_Axes.Array.data[9].altNegativeButton
    value: 
    objectReference: {fileID: 0}
  - target: {fileID: 0}
    propertyPath: m_Axes.Array.data[9].altPositiveButton
    value: 
    objectReference: {fileID: 0}
  - target: {fileID: 0}
    propertyPath: m_Axes.Array.data[9].gravity
    value: 1000
    objectReference: {fileID: 0}
  - target: {fileID: 0}
    propertyPath: m_Axes.Array.data[9].dead
    value: 0.001
    objectReference: {fileID: 0}
  - target: {fileID: 0}
    propertyPath: m_Axes.Array.data[9].sensitivity
    value: 1000
    objectReference: {fileID: 0}
  - target: {fileID: 0}
    propertyPath: m_Axes.Array.data[9].snap
    value: 0
    objectReference: {fileID: 0}
  - target: {fileID: 0}
    propertyPath: m_Axes.Array.data[9].invert
    value: 0
    objectReference: {fileID: 0}
  - target: {fileID: 0}
    propertyPath: m_Axes.Array.data[9].type
    value: 0
    objectReference: {fileID: 0}
  - target: {fileID: 0}
    propertyPath: m_Axes.Array.data[9].axis
    value: 0
    objectReference: {fileID: 0}
  - target: {fileID: 0}
    propertyPath: m_Axes.Array.data[9].joyNum
    value: 0
    objectReference: {fileID: 0}
  - target: {fileID: 0}
    propertyPath: m_Axes.Array.data[10].m_Name
    value: Mouse X
    objectReference: {fileID: 0}
  - target: {fileID: 0}
    propertyPath: m_Axes.Array.data[10].descriptiveName
    value: 
    objectReference: {fileID: 0}
  - target: {fileID: 0}
    propertyPath: m_Axes.Array.data[10].descriptiveNegativeName
    value: 
    objectReference: {fileID: 0}
  - target: {fileID: 0}
    propertyPath: m_Axes.Array.data[10].negativeButton
    value: 
    objectReference: {fileID: 0}
  - target: {fileID: 0}
    propertyPath: m_Axes.Array.data[10].positiveButton
    value: 
    objectReference: {fileID: 0}
  - target: {fileID: 0}
    propertyPath: m_Axes.Array.data[10].altNegativeButton
    value: 
    objectReference: {fileID: 0}
  - target: {fileID: 0}
    propertyPath: m_Axes.Array.data[10].altPositiveButton
    value: 
    objectReference: {fileID: 0}
  - target: {fileID: 0}
    propertyPath: m_Axes.Array.data[10].gravity
    value: 0
    objectReference: {fileID: 0}
  - target: {fileID: 0}
    propertyPath: m_Axes.Array.data[10].dead
    value: 0
    objectReference: {fileID: 0}
  - target: {fileID: 0}
    propertyPath: m_Axes.Array.data[10].sensitivity
    value: 0.1
    objectReference: {fileID: 0}
  - target: {fileID: 0}
    propertyPath: m_Axes.Array.data[10].snap
    value: 0
    objectReference: {fileID: 0}
  - target: {fileID: 0}
    propertyPath: m_Axes.Array.data[10].invert
    value: 0
    objectReference: {fileID: 0}
  - target: {fileID: 0}
    propertyPath: m_Axes.Array.data[10].type
    value: 1
    objectReference: {fileID: 0}
  - target: {fileID: 0}
    propertyPath: m_Axes.Array.data[10].axis
    value: 0
    objectReference: {fileID: 0}
  - target: {fileID: 0}
    propertyPath: m_Axes.Array.data[10].joyNum
    value: 0
    objectReference: {fileID: 0}
  - target: {fileID: 0}
    propertyPath: m_Axes.Array.data[11].m_Name
    value: RightAxis X
    objectReference: {fileID: 0}
  - target: {fileID: 0}
    propertyPath: m_Axes.Array.data[11].descriptiveName
    value: 
    objectReference: {fileID: 0}
  - target: {fileID: 0}
    propertyPath: m_Axes.Array.data[11].descriptiveNegativeName
    value: 
    objectReference: {fileID: 0}
  - target: {fileID: 0}
    propertyPath: m_Axes.Array.data[11].negativeButton
    value: 
    objectReference: {fileID: 0}
  - target: {fileID: 0}
    propertyPath: m_Axes.Array.data[11].positiveButton
    value: 
    objectReference: {fileID: 0}
  - target: {fileID: 0}
    propertyPath: m_Axes.Array.data[11].altNegativeButton
    value: 
    objectReference: {fileID: 0}
  - target: {fileID: 0}
    propertyPath: m_Axes.Array.data[11].altPositiveButton
    value: 
    objectReference: {fileID: 0}
  - target: {fileID: 0}
    propertyPath: m_Axes.Array.data[11].gravity
    value: 0
    objectReference: {fileID: 0}
  - target: {fileID: 0}
    propertyPath: m_Axes.Array.data[11].dead
    value: 0.19
    objectReference: {fileID: 0}
  - target: {fileID: 0}
    propertyPath: m_Axes.Array.data[11].sensitivity
    value: 1
    objectReference: {fileID: 0}
  - target: {fileID: 0}
    propertyPath: m_Axes.Array.data[11].snap
    value: 0
    objectReference: {fileID: 0}
  - target: {fileID: 0}
    propertyPath: m_Axes.Array.data[11].invert
    value: 0
    objectReference: {fileID: 0}
  - target: {fileID: 0}
    propertyPath: m_Axes.Array.data[11].type
    value: 2
    objectReference: {fileID: 0}
  - target: {fileID: 0}
    propertyPath: m_Axes.Array.data[11].axis
    value: 2
    objectReference: {fileID: 0}
  - target: {fileID: 0}
    propertyPath: m_Axes.Array.data[11].joyNum
    value: 0
    objectReference: {fileID: 0}
  - target: {fileID: 0}
    propertyPath: m_Axes.Array.data[12].m_Name
    value: Mouse Y
    objectReference: {fileID: 0}
  - target: {fileID: 0}
    propertyPath: m_Axes.Array.data[12].descriptiveName
    value: 
    objectReference: {fileID: 0}
  - target: {fileID: 0}
    propertyPath: m_Axes.Array.data[12].descriptiveNegativeName
    value: 
    objectReference: {fileID: 0}
  - target: {fileID: 0}
    propertyPath: m_Axes.Array.data[12].negativeButton
    value: 
    objectReference: {fileID: 0}
  - target: {fileID: 0}
    propertyPath: m_Axes.Array.data[12].positiveButton
    value: 
    objectReference: {fileID: 0}
  - target: {fileID: 0}
    propertyPath: m_Axes.Array.data[12].altNegativeButton
    value: 
    objectReference: {fileID: 0}
  - target: {fileID: 0}
    propertyPath: m_Axes.Array.data[12].altPositiveButton
    value: 
    objectReference: {fileID: 0}
  - target: {fileID: 0}
    propertyPath: m_Axes.Array.data[12].gravity
    value: 0
    objectReference: {fileID: 0}
  - target: {fileID: 0}
    propertyPath: m_Axes.Array.data[12].dead
    value: 0
    objectReference: {fileID: 0}
  - target: {fileID: 0}
    propertyPath: m_Axes.Array.data[12].sensitivity
    value: 0.1
    objectReference: {fileID: 0}
  - target: {fileID: 0}
    propertyPath: m_Axes.Array.data[12].snap
    value: 0
    objectReference: {fileID: 0}
  - target: {fileID: 0}
    propertyPath: m_Axes.Array.data[12].invert
    value: 0
    objectReference: {fileID: 0}
  - target: {fileID: 0}
    propertyPath: m_Axes.Array.data[12].type
    value: 1
    objectReference: {fileID: 0}
  - target: {fileID: 0}
    propertyPath: m_Axes.Array.data[12].axis
    value: 1
    objectReference: {fileID: 0}
  - target: {fileID: 0}
    propertyPath: m_Axes.Array.data[12].joyNum
    value: 0
    objectReference: {fileID: 0}
  - target: {fileID: 0}
    propertyPath: m_Axes.Array.data[13].m_Name
    value: RightAxis Y
    objectReference: {fileID: 0}
  - target: {fileID: 0}
    propertyPath: m_Axes.Array.data[13].descriptiveName
    value: 
    objectReference: {fileID: 0}
  - target: {fileID: 0}
    propertyPath: m_Axes.Array.data[13].descriptiveNegativeName
    value: 
    objectReference: {fileID: 0}
  - target: {fileID: 0}
    propertyPath: m_Axes.Array.data[13].negativeButton
    value: 
    objectReference: {fileID: 0}
  - target: {fileID: 0}
    propertyPath: m_Axes.Array.data[13].positiveButton
    value: 
    objectReference: {fileID: 0}
  - target: {fileID: 0}
    propertyPath: m_Axes.Array.data[13].altNegativeButton
    value: 
    objectReference: {fileID: 0}
  - target: {fileID: 0}
    propertyPath: m_Axes.Array.data[13].altPositiveButton
    value: 
    objectReference: {fileID: 0}
  - target: {fileID: 0}
    propertyPath: m_Axes.Array.data[13].gravity
    value: 0
    objectReference: {fileID: 0}
  - target: {fileID: 0}
    propertyPath: m_Axes.Array.data[13].dead
    value: 0.19
    objectReference: {fileID: 0}
  - target: {fileID: 0}
    propertyPath: m_Axes.Array.data[13].sensitivity
    value: 1
    objectReference: {fileID: 0}
  - target: {fileID: 0}
    propertyPath: m_Axes.Array.data[13].snap
    value: 0
    objectReference: {fileID: 0}
  - target: {fileID: 0}
    propertyPath: m_Axes.Array.data[13].invert
    value: 0
    objectReference: {fileID: 0}
  - target: {fileID: 0}
    propertyPath: m_Axes.Array.data[13].type
    value: 2
    objectReference: {fileID: 0}
  - target: {fileID: 0}
    propertyPath: m_Axes.Array.data[13].axis
    value: 4
    objectReference: {fileID: 0}
  - target: {fileID: 0}
    propertyPath: m_Axes.Array.data[13].joyNum
    value: 0
    objectReference: {fileID: 0}
  - target: {fileID: 0}
    propertyPath: m_Axes.Array.data[14].m_Name
    value: Mouse ScrollWheel
    objectReference: {fileID: 0}
  - target: {fileID: 0}
    propertyPath: m_Axes.Array.data[14].descriptiveName
    value: 
    objectReference: {fileID: 0}
  - target: {fileID: 0}
    propertyPath: m_Axes.Array.data[14].descriptiveNegativeName
    value: 
    objectReference: {fileID: 0}
  - target: {fileID: 0}
    propertyPath: m_Axes.Array.data[14].negativeButton
    value: 
    objectReference: {fileID: 0}
  - target: {fileID: 0}
    propertyPath: m_Axes.Array.data[14].positiveButton
    value: 
    objectReference: {fileID: 0}
  - target: {fileID: 0}
    propertyPath: m_Axes.Array.data[14].altNegativeButton
    value: 
    objectReference: {fileID: 0}
  - target: {fileID: 0}
    propertyPath: m_Axes.Array.data[14].altPositiveButton
    value: 
    objectReference: {fileID: 0}
  - target: {fileID: 0}
    propertyPath: m_Axes.Array.data[14].gravity
    value: 0
    objectReference: {fileID: 0}
  - target: {fileID: 0}
    propertyPath: m_Axes.Array.data[14].dead
    value: 0
    objectReference: {fileID: 0}
  - target: {fileID: 0}
    propertyPath: m_Axes.Array.data[14].sensitivity
    value: 0.1
    objectReference: {fileID: 0}
  - target: {fileID: 0}
    propertyPath: m_Axes.Array.data[14].snap
    value: 0
    objectReference: {fileID: 0}
  - target: {fileID: 0}
    propertyPath: m_Axes.Array.data[14].invert
    value: 0
    objectReference: {fileID: 0}
  - target: {fileID: 0}
    propertyPath: m_Axes.Array.data[14].type
    value: 1
    objectReference: {fileID: 0}
  - target: {fileID: 0}
    propertyPath: m_Axes.Array.data[14].axis
    value: 2
    objectReference: {fileID: 0}
  - target: {fileID: 0}
    propertyPath: m_Axes.Array.data[14].joyNum
    value: 0
    objectReference: {fileID: 0}
  - target: {fileID: 0}
    propertyPath: m_Axes.Array.data[15].m_Name
    value: Horizontal
    objectReference: {fileID: 0}
  - target: {fileID: 0}
    propertyPath: m_Axes.Array.data[15].descriptiveName
    value: 
    objectReference: {fileID: 0}
  - target: {fileID: 0}
    propertyPath: m_Axes.Array.data[15].descriptiveNegativeName
    value: 
    objectReference: {fileID: 0}
  - target: {fileID: 0}
    propertyPath: m_Axes.Array.data[15].negativeButton
    value: 
    objectReference: {fileID: 0}
  - target: {fileID: 0}
    propertyPath: m_Axes.Array.data[15].positiveButton
    value: 
    objectReference: {fileID: 0}
  - target: {fileID: 0}
    propertyPath: m_Axes.Array.data[15].altNegativeButton
    value: 
    objectReference: {fileID: 0}
  - target: {fileID: 0}
    propertyPath: m_Axes.Array.data[15].altPositiveButton
    value: 
    objectReference: {fileID: 0}
  - target: {fileID: 0}
    propertyPath: m_Axes.Array.data[15].gravity
    value: 0
    objectReference: {fileID: 0}
  - target: {fileID: 0}
    propertyPath: m_Axes.Array.data[15].dead
    value: 0.19
    objectReference: {fileID: 0}
  - target: {fileID: 0}
    propertyPath: m_Axes.Array.data[15].sensitivity
    value: 1
    objectReference: {fileID: 0}
  - target: {fileID: 0}
    propertyPath: m_Axes.Array.data[15].snap
    value: 0
    objectReference: {fileID: 0}
  - target: {fileID: 0}
    propertyPath: m_Axes.Array.data[15].invert
    value: 0
    objectReference: {fileID: 0}
  - target: {fileID: 0}
    propertyPath: m_Axes.Array.data[15].type
    value: 2
    objectReference: {fileID: 0}
  - target: {fileID: 0}
    propertyPath: m_Axes.Array.data[15].axis
    value: 0
    objectReference: {fileID: 0}
  - target: {fileID: 0}
    propertyPath: m_Axes.Array.data[15].joyNum
    value: 0
    objectReference: {fileID: 0}
  - target: {fileID: 0}
    propertyPath: m_Axes.Array.data[16].m_Name
    value: Vertical
    objectReference: {fileID: 0}
  - target: {fileID: 0}
    propertyPath: m_Axes.Array.data[16].descriptiveName
    value: 
    objectReference: {fileID: 0}
  - target: {fileID: 0}
    propertyPath: m_Axes.Array.data[16].descriptiveNegativeName
    value: 
    objectReference: {fileID: 0}
  - target: {fileID: 0}
    propertyPath: m_Axes.Array.data[16].negativeButton
    value: 
    objectReference: {fileID: 0}
  - target: {fileID: 0}
    propertyPath: m_Axes.Array.data[16].positiveButton
    value: 
    objectReference: {fileID: 0}
  - target: {fileID: 0}
    propertyPath: m_Axes.Array.data[16].altNegativeButton
    value: 
    objectReference: {fileID: 0}
  - target: {fileID: 0}
    propertyPath: m_Axes.Array.data[16].altPositiveButton
    value: 
    objectReference: {fileID: 0}
  - target: {fileID: 0}
    propertyPath: m_Axes.Array.data[16].gravity
    value: 0
    objectReference: {fileID: 0}
  - target: {fileID: 0}
    propertyPath: m_Axes.Array.data[16].dead
    value: 0.19
    objectReference: {fileID: 0}
  - target: {fileID: 0}
    propertyPath: m_Axes.Array.data[16].sensitivity
    value: 1
    objectReference: {fileID: 0}
  - target: {fileID: 0}
    propertyPath: m_Axes.Array.data[16].snap
    value: 0
    objectReference: {fileID: 0}
  - target: {fileID: 0}
    propertyPath: m_Axes.Array.data[16].invert
    value: 1
    objectReference: {fileID: 0}
  - target: {fileID: 0}
    propertyPath: m_Axes.Array.data[16].type
    value: 2
    objectReference: {fileID: 0}
  - target: {fileID: 0}
    propertyPath: m_Axes.Array.data[16].axis
    value: 1
    objectReference: {fileID: 0}
  - target: {fileID: 0}
    propertyPath: m_Axes.Array.data[16].joyNum
    value: 0
    objectReference: {fileID: 0}
  - target: {fileID: 0}
    propertyPath: m_Axes.Array.data[17].m_Name
    value: Vertical
    objectReference: {fileID: 0}
  - target: {fileID: 0}
    propertyPath: m_Axes.Array.data[17].descriptiveName
    value: 
    objectReference: {fileID: 0}
  - target: {fileID: 0}
    propertyPath: m_Axes.Array.data[17].descriptiveNegativeName
    value: 
    objectReference: {fileID: 0}
  - target: {fileID: 0}
    propertyPath: m_Axes.Array.data[17].negativeButton
    value: 
    objectReference: {fileID: 0}
  - target: {fileID: 0}
    propertyPath: m_Axes.Array.data[17].positiveButton
    value: 
    objectReference: {fileID: 0}
  - target: {fileID: 0}
    propertyPath: m_Axes.Array.data[17].altNegativeButton
    value: 
    objectReference: {fileID: 0}
  - target: {fileID: 0}
    propertyPath: m_Axes.Array.data[17].altPositiveButton
    value: 
    objectReference: {fileID: 0}
  - target: {fileID: 0}
    propertyPath: m_Axes.Array.data[17].gravity
    value: 0
    objectReference: {fileID: 0}
  - target: {fileID: 0}
    propertyPath: m_Axes.Array.data[17].dead
    value: 0.19
    objectReference: {fileID: 0}
  - target: {fileID: 0}
    propertyPath: m_Axes.Array.data[17].sensitivity
    value: 1
    objectReference: {fileID: 0}
  - target: {fileID: 0}
    propertyPath: m_Axes.Array.data[17].snap
    value: 0
    objectReference: {fileID: 0}
  - target: {fileID: 0}
    propertyPath: m_Axes.Array.data[17].invert
    value: 1
    objectReference: {fileID: 0}
  - target: {fileID: 0}
    propertyPath: m_Axes.Array.data[17].type
    value: 2
    objectReference: {fileID: 0}
  - target: {fileID: 0}
    propertyPath: m_Axes.Array.data[17].axis
    value: 1
    objectReference: {fileID: 0}
  - target: {fileID: 0}
    propertyPath: m_Axes.Array.data[17].joyNum
    value: 0
    objectReference: {fileID: 0}
  - target: {fileID: 0}
    propertyPath: m_Axes.Array.data[18].m_Name
    value: RT
    objectReference: {fileID: 0}
  - target: {fileID: 0}
    propertyPath: m_Axes.Array.data[18].descriptiveName
    value: 
    objectReference: {fileID: 0}
  - target: {fileID: 0}
    propertyPath: m_Axes.Array.data[18].descriptiveNegativeName
    value: 
    objectReference: {fileID: 0}
  - target: {fileID: 0}
    propertyPath: m_Axes.Array.data[18].negativeButton
    value: 
    objectReference: {fileID: 0}
  - target: {fileID: 0}
    propertyPath: m_Axes.Array.data[18].positiveButton
    value: 
    objectReference: {fileID: 0}
  - target: {fileID: 0}
    propertyPath: m_Axes.Array.data[18].altNegativeButton
    value: 
    objectReference: {fileID: 0}
  - target: {fileID: 0}
    propertyPath: m_Axes.Array.data[18].altPositiveButton
    value: 
    objectReference: {fileID: 0}
  - target: {fileID: 0}
    propertyPath: m_Axes.Array.data[18].gravity
    value: 0
    objectReference: {fileID: 0}
  - target: {fileID: 0}
    propertyPath: m_Axes.Array.data[18].dead
    value: 0.19
    objectReference: {fileID: 0}
  - target: {fileID: 0}
    propertyPath: m_Axes.Array.data[18].sensitivity
    value: 1
    objectReference: {fileID: 0}
  - target: {fileID: 0}
    propertyPath: m_Axes.Array.data[18].snap
    value: 0
    objectReference: {fileID: 0}
  - target: {fileID: 0}
    propertyPath: m_Axes.Array.data[18].invert
    value: 1
    objectReference: {fileID: 0}
  - target: {fileID: 0}
    propertyPath: m_Axes.Array.data[18].type
    value: 2
    objectReference: {fileID: 0}
  - target: {fileID: 0}
    propertyPath: m_Axes.Array.data[18].axis
    value: 9
    objectReference: {fileID: 0}
  - target: {fileID: 0}
    propertyPath: m_Axes.Array.data[18].joyNum
    value: 0
    objectReference: {fileID: 0}
  - target: {fileID: 0}
    propertyPath: m_Axes.Array.data[19].m_Name
    value: b_input
    objectReference: {fileID: 0}
  - target: {fileID: 0}
    propertyPath: m_Axes.Array.data[19].descriptiveName
    value: 
    objectReference: {fileID: 0}
  - target: {fileID: 0}
    propertyPath: m_Axes.Array.data[19].descriptiveNegativeName
    value: 
    objectReference: {fileID: 0}
  - target: {fileID: 0}
    propertyPath: m_Axes.Array.data[19].negativeButton
    value: 
    objectReference: {fileID: 0}
  - target: {fileID: 0}
    propertyPath: m_Axes.Array.data[19].positiveButton
    value: 
    objectReference: {fileID: 0}
  - target: {fileID: 0}
    propertyPath: m_Axes.Array.data[19].altNegativeButton
    value: 
    objectReference: {fileID: 0}
  - target: {fileID: 0}
    propertyPath: m_Axes.Array.data[19].altPositiveButton
    value: 
    objectReference: {fileID: 0}
  - target: {fileID: 0}
    propertyPath: m_Axes.Array.data[19].gravity
    value: 0
    objectReference: {fileID: 0}
  - target: {fileID: 0}
    propertyPath: m_Axes.Array.data[19].dead
    value: 0.19
    objectReference: {fileID: 0}
  - target: {fileID: 0}
    propertyPath: m_Axes.Array.data[19].sensitivity
    value: 1
    objectReference: {fileID: 0}
  - target: {fileID: 0}
    propertyPath: m_Axes.Array.data[19].snap
    value: 0
    objectReference: {fileID: 0}
  - target: {fileID: 0}
    propertyPath: m_Axes.Array.data[19].invert
    value: 1
    objectReference: {fileID: 0}
  - target: {fileID: 0}
    propertyPath: m_Axes.Array.data[19].type
    value: 2
    objectReference: {fileID: 0}
  - target: {fileID: 0}
    propertyPath: m_Axes.Array.data[19].axis
    value: 7
    objectReference: {fileID: 0}
  - target: {fileID: 0}
    propertyPath: m_Axes.Array.data[19].joyNum
    value: 0
    objectReference: {fileID: 0}
  - target: {fileID: 0}
    propertyPath: m_Axes.Array.data[20].m_Name
    value: A
    objectReference: {fileID: 0}
  - target: {fileID: 0}
    propertyPath: m_Axes.Array.data[20].descriptiveName
    value: 
    objectReference: {fileID: 0}
  - target: {fileID: 0}
    propertyPath: m_Axes.Array.data[20].descriptiveNegativeName
    value: 
    objectReference: {fileID: 0}
  - target: {fileID: 0}
    propertyPath: m_Axes.Array.data[20].negativeButton
    value: 
    objectReference: {fileID: 0}
  - target: {fileID: 0}
    propertyPath: m_Axes.Array.data[20].positiveButton
    value: left ctrl
    objectReference: {fileID: 0}
  - target: {fileID: 0}
    propertyPath: m_Axes.Array.data[20].altNegativeButton
    value: 
    objectReference: {fileID: 0}
  - target: {fileID: 0}
    propertyPath: m_Axes.Array.data[20].altPositiveButton
    value: 
    objectReference: {fileID: 0}
  - target: {fileID: 0}
    propertyPath: m_Axes.Array.data[20].gravity
    value: 0
    objectReference: {fileID: 0}
  - target: {fileID: 0}
    propertyPath: m_Axes.Array.data[20].dead
    value: 0.19
    objectReference: {fileID: 0}
  - target: {fileID: 0}
    propertyPath: m_Axes.Array.data[20].sensitivity
    value: 1
    objectReference: {fileID: 0}
  - target: {fileID: 0}
    propertyPath: m_Axes.Array.data[20].snap
    value: 0
    objectReference: {fileID: 0}
  - target: {fileID: 0}
    propertyPath: m_Axes.Array.data[20].invert
    value: 1
    objectReference: {fileID: 0}
  - target: {fileID: 0}
    propertyPath: m_Axes.Array.data[20].type
    value: 2
    objectReference: {fileID: 0}
  - target: {fileID: 0}
    propertyPath: m_Axes.Array.data[20].axis
    value: 7
    objectReference: {fileID: 0}
  - target: {fileID: 0}
    propertyPath: m_Axes.Array.data[20].joyNum
    value: 0
    objectReference: {fileID: 0}
  - target: {fileID: 0}
    propertyPath: m_Axes.Array.data[21].m_Name
    value: X
    objectReference: {fileID: 0}
  - target: {fileID: 0}
    propertyPath: m_Axes.Array.data[21].descriptiveName
    value: 
    objectReference: {fileID: 0}
  - target: {fileID: 0}
    propertyPath: m_Axes.Array.data[21].descriptiveNegativeName
    value: 
    objectReference: {fileID: 0}
  - target: {fileID: 0}
    propertyPath: m_Axes.Array.data[21].negativeButton
    value: 
    objectReference: {fileID: 0}
  - target: {fileID: 0}
    propertyPath: m_Axes.Array.data[21].positiveButton
    value: 
    objectReference: {fileID: 0}
  - target: {fileID: 0}
    propertyPath: m_Axes.Array.data[21].altNegativeButton
    value: 
    objectReference: {fileID: 0}
  - target: {fileID: 0}
    propertyPath: m_Axes.Array.data[21].altPositiveButton
    value: 
    objectReference: {fileID: 0}
  - target: {fileID: 0}
    propertyPath: m_Axes.Array.data[21].gravity
    value: 0
    objectReference: {fileID: 0}
  - target: {fileID: 0}
    propertyPath: m_Axes.Array.data[21].dead
    value: 0.19
    objectReference: {fileID: 0}
  - target: {fileID: 0}
    propertyPath: m_Axes.Array.data[21].sensitivity
    value: 1
    objectReference: {fileID: 0}
  - target: {fileID: 0}
    propertyPath: m_Axes.Array.data[21].snap
    value: 0
    objectReference: {fileID: 0}
  - target: {fileID: 0}
    propertyPath: m_Axes.Array.data[21].invert
    value: 1
    objectReference: {fileID: 0}
  - target: {fileID: 0}
    propertyPath: m_Axes.Array.data[21].type
    value: 2
    objectReference: {fileID: 0}
  - target: {fileID: 0}
    propertyPath: m_Axes.Array.data[21].axis
    value: 7
    objectReference: {fileID: 0}
  - target: {fileID: 0}
    propertyPath: m_Axes.Array.data[21].joyNum
    value: 0
    objectReference: {fileID: 0}
  - target: {fileID: 0}
    propertyPath: m_Axes.Array.data[22].m_Name
    value: Y
    objectReference: {fileID: 0}
  - target: {fileID: 0}
    propertyPath: m_Axes.Array.data[22].descriptiveName
    value: 
    objectReference: {fileID: 0}
  - target: {fileID: 0}
    propertyPath: m_Axes.Array.data[22].descriptiveNegativeName
    value: 
    objectReference: {fileID: 0}
  - target: {fileID: 0}
    propertyPath: m_Axes.Array.data[22].negativeButton
    value: 
    objectReference: {fileID: 0}
  - target: {fileID: 0}
    propertyPath: m_Axes.Array.data[22].positiveButton
    value: joystick button 5
    objectReference: {fileID: 0}
  - target: {fileID: 0}
    propertyPath: m_Axes.Array.data[22].altNegativeButton
    value: 
    objectReference: {fileID: 0}
  - target: {fileID: 0}
    propertyPath: m_Axes.Array.data[22].altPositiveButton
    value: 
    objectReference: {fileID: 0}
  - target: {fileID: 0}
    propertyPath: m_Axes.Array.data[22].gravity
    value: 0
    objectReference: {fileID: 0}
  - target: {fileID: 0}
    propertyPath: m_Axes.Array.data[22].dead
    value: 0.19
    objectReference: {fileID: 0}
  - target: {fileID: 0}
    propertyPath: m_Axes.Array.data[22].sensitivity
    value: 1
    objectReference: {fileID: 0}
  - target: {fileID: 0}
    propertyPath: m_Axes.Array.data[22].snap
    value: 0
    objectReference: {fileID: 0}
  - target: {fileID: 0}
    propertyPath: m_Axes.Array.data[22].invert
    value: 1
    objectReference: {fileID: 0}
  - target: {fileID: 0}
    propertyPath: m_Axes.Array.data[22].type
    value: 2
    objectReference: {fileID: 0}
  - target: {fileID: 0}
    propertyPath: m_Axes.Array.data[22].axis
    value: 7
    objectReference: {fileID: 0}
  - target: {fileID: 0}
    propertyPath: m_Axes.Array.data[22].joyNum
    value: 0
    objectReference: {fileID: 0}
  - target: {fileID: 0}
    propertyPath: m_Axes.Array.data[23].m_Name
    value: LT
    objectReference: {fileID: 0}
  - target: {fileID: 0}
    propertyPath: m_Axes.Array.data[23].descriptiveName
    value: 
    objectReference: {fileID: 0}
  - target: {fileID: 0}
    propertyPath: m_Axes.Array.data[23].descriptiveNegativeName
    value: 
    objectReference: {fileID: 0}
  - target: {fileID: 0}
    propertyPath: m_Axes.Array.data[23].negativeButton
    value: 
    objectReference: {fileID: 0}
  - target: {fileID: 0}
    propertyPath: m_Axes.Array.data[23].positiveButton
    value: 
    objectReference: {fileID: 0}
  - target: {fileID: 0}
    propertyPath: m_Axes.Array.data[23].altNegativeButton
    value: 
    objectReference: {fileID: 0}
  - target: {fileID: 0}
    propertyPath: m_Axes.Array.data[23].altPositiveButton
    value: 
    objectReference: {fileID: 0}
  - target: {fileID: 0}
    propertyPath: m_Axes.Array.data[23].gravity
    value: 0
    objectReference: {fileID: 0}
  - target: {fileID: 0}
    propertyPath: m_Axes.Array.data[23].dead
    value: 0.19
    objectReference: {fileID: 0}
  - target: {fileID: 0}
    propertyPath: m_Axes.Array.data[23].sensitivity
    value: 1
    objectReference: {fileID: 0}
  - target: {fileID: 0}
    propertyPath: m_Axes.Array.data[23].snap
    value: 0
    objectReference: {fileID: 0}
  - target: {fileID: 0}
    propertyPath: m_Axes.Array.data[23].invert
    value: 1
    objectReference: {fileID: 0}
  - target: {fileID: 0}
    propertyPath: m_Axes.Array.data[23].type
    value: 2
    objectReference: {fileID: 0}
  - target: {fileID: 0}
    propertyPath: m_Axes.Array.data[23].axis
    value: 8
    objectReference: {fileID: 0}
  - target: {fileID: 0}
    propertyPath: m_Axes.Array.data[23].joyNum
    value: 0
    objectReference: {fileID: 0}
  - target: {fileID: 0}
    propertyPath: m_Axes.Array.data[24].m_Name
    value: RB
    objectReference: {fileID: 0}
  - target: {fileID: 0}
    propertyPath: m_Axes.Array.data[24].descriptiveName
    value: 
    objectReference: {fileID: 0}
  - target: {fileID: 0}
    propertyPath: m_Axes.Array.data[24].descriptiveNegativeName
    value: 
    objectReference: {fileID: 0}
  - target: {fileID: 0}
    propertyPath: m_Axes.Array.data[24].negativeButton
    value: 
    objectReference: {fileID: 0}
  - target: {fileID: 0}
    propertyPath: m_Axes.Array.data[24].positiveButton
    value: 
    objectReference: {fileID: 0}
  - target: {fileID: 0}
    propertyPath: m_Axes.Array.data[24].altNegativeButton
    value: 
    objectReference: {fileID: 0}
  - target: {fileID: 0}
    propertyPath: m_Axes.Array.data[24].altPositiveButton
    value: 
    objectReference: {fileID: 0}
  - target: {fileID: 0}
    propertyPath: m_Axes.Array.data[24].gravity
    value: 1000
    objectReference: {fileID: 0}
  - target: {fileID: 0}
    propertyPath: m_Axes.Array.data[24].dead
    value: 0.001
    objectReference: {fileID: 0}
  - target: {fileID: 0}
    propertyPath: m_Axes.Array.data[24].sensitivity
    value: 1000
    objectReference: {fileID: 0}
  - target: {fileID: 0}
    propertyPath: m_Axes.Array.data[24].snap
    value: 0
    objectReference: {fileID: 0}
  - target: {fileID: 0}
    propertyPath: m_Axes.Array.data[24].invert
    value: 0
    objectReference: {fileID: 0}
  - target: {fileID: 0}
    propertyPath: m_Axes.Array.data[24].type
    value: 0
    objectReference: {fileID: 0}
  - target: {fileID: 0}
    propertyPath: m_Axes.Array.data[24].axis
    value: 0
    objectReference: {fileID: 0}
  - target: {fileID: 0}
    propertyPath: m_Axes.Array.data[24].joyNum
    value: 0
    objectReference: {fileID: 0}
  - target: {fileID: 0}
    propertyPath: m_Axes.Array.data[25].m_Name
    value: LB
    objectReference: {fileID: 0}
  - target: {fileID: 0}
    propertyPath: m_Axes.Array.data[25].descriptiveName
    value: 
    objectReference: {fileID: 0}
  - target: {fileID: 0}
    propertyPath: m_Axes.Array.data[25].descriptiveNegativeName
    value: 
    objectReference: {fileID: 0}
  - target: {fileID: 0}
    propertyPath: m_Axes.Array.data[25].negativeButton
    value: 
    objectReference: {fileID: 0}
  - target: {fileID: 0}
    propertyPath: m_Axes.Array.data[25].positiveButton
    value: joystick button 1
    objectReference: {fileID: 0}
  - target: {fileID: 0}
    propertyPath: m_Axes.Array.data[25].altNegativeButton
    value: 
    objectReference: {fileID: 0}
  - target: {fileID: 0}
    propertyPath: m_Axes.Array.data[25].altPositiveButton
    value: 
    objectReference: {fileID: 0}
  - target: {fileID: 0}
    propertyPath: m_Axes.Array.data[25].gravity
    value: 1000
    objectReference: {fileID: 0}
  - target: {fileID: 0}
    propertyPath: m_Axes.Array.data[25].dead
    value: 0.001
    objectReference: {fileID: 0}
  - target: {fileID: 0}
    propertyPath: m_Axes.Array.data[25].sensitivity
    value: 1000
    objectReference: {fileID: 0}
  - target: {fileID: 0}
    propertyPath: m_Axes.Array.data[25].snap
    value: 0
    objectReference: {fileID: 0}
  - target: {fileID: 0}
    propertyPath: m_Axes.Array.data[25].invert
    value: 0
    objectReference: {fileID: 0}
  - target: {fileID: 0}
    propertyPath: m_Axes.Array.data[25].type
    value: 0
    objectReference: {fileID: 0}
  - target: {fileID: 0}
    propertyPath: m_Axes.Array.data[25].axis
    value: 0
    objectReference: {fileID: 0}
  - target: {fileID: 0}
    propertyPath: m_Axes.Array.data[25].joyNum
    value: 0
    objectReference: {fileID: 0}
  - target: {fileID: 0}
    propertyPath: m_Axes.Array.data[26].m_Name
    value: Fire2
    objectReference: {fileID: 0}
  - target: {fileID: 0}
    propertyPath: m_Axes.Array.data[26].descriptiveName
    value: 
    objectReference: {fileID: 0}
  - target: {fileID: 0}
    propertyPath: m_Axes.Array.data[26].descriptiveNegativeName
    value: 
    objectReference: {fileID: 0}
  - target: {fileID: 0}
    propertyPath: m_Axes.Array.data[26].negativeButton
    value: 
    objectReference: {fileID: 0}
  - target: {fileID: 0}
    propertyPath: m_Axes.Array.data[26].positiveButton
    value: joystick button 1
    objectReference: {fileID: 0}
  - target: {fileID: 0}
    propertyPath: m_Axes.Array.data[26].altNegativeButton
    value: 
    objectReference: {fileID: 0}
  - target: {fileID: 0}
    propertyPath: m_Axes.Array.data[26].altPositiveButton
    value: 
    objectReference: {fileID: 0}
  - target: {fileID: 0}
    propertyPath: m_Axes.Array.data[26].gravity
    value: 1000
    objectReference: {fileID: 0}
  - target: {fileID: 0}
    propertyPath: m_Axes.Array.data[26].dead
    value: 0.001
    objectReference: {fileID: 0}
  - target: {fileID: 0}
    propertyPath: m_Axes.Array.data[26].sensitivity
    value: 1000
    objectReference: {fileID: 0}
  - target: {fileID: 0}
    propertyPath: m_Axes.Array.data[26].snap
    value: 0
    objectReference: {fileID: 0}
  - target: {fileID: 0}
    propertyPath: m_Axes.Array.data[26].invert
    value: 0
    objectReference: {fileID: 0}
  - target: {fileID: 0}
    propertyPath: m_Axes.Array.data[26].type
    value: 0
    objectReference: {fileID: 0}
  - target: {fileID: 0}
    propertyPath: m_Axes.Array.data[26].axis
    value: 0
    objectReference: {fileID: 0}
  - target: {fileID: 0}
    propertyPath: m_Axes.Array.data[26].joyNum
    value: 0
    objectReference: {fileID: 0}
  - target: {fileID: 0}
    propertyPath: m_Axes.Array.data[27].m_Name
    value: Fire3
    objectReference: {fileID: 0}
  - target: {fileID: 0}
    propertyPath: m_Axes.Array.data[27].descriptiveName
    value: 
    objectReference: {fileID: 0}
  - target: {fileID: 0}
    propertyPath: m_Axes.Array.data[27].descriptiveNegativeName
    value: 
    objectReference: {fileID: 0}
  - target: {fileID: 0}
    propertyPath: m_Axes.Array.data[27].negativeButton
    value: 
    objectReference: {fileID: 0}
  - target: {fileID: 0}
    propertyPath: m_Axes.Array.data[27].positiveButton
    value: joystick button 2
    objectReference: {fileID: 0}
  - target: {fileID: 0}
    propertyPath: m_Axes.Array.data[27].altNegativeButton
    value: 
    objectReference: {fileID: 0}
  - target: {fileID: 0}
    propertyPath: m_Axes.Array.data[27].altPositiveButton
    value: 
    objectReference: {fileID: 0}
  - target: {fileID: 0}
    propertyPath: m_Axes.Array.data[27].gravity
    value: 1000
    objectReference: {fileID: 0}
  - target: {fileID: 0}
    propertyPath: m_Axes.Array.data[27].dead
    value: 0.001
    objectReference: {fileID: 0}
  - target: {fileID: 0}
    propertyPath: m_Axes.Array.data[27].sensitivity
    value: 1000
    objectReference: {fileID: 0}
  - target: {fileID: 0}
    propertyPath: m_Axes.Array.data[27].snap
    value: 0
    objectReference: {fileID: 0}
  - target: {fileID: 0}
    propertyPath: m_Axes.Array.data[27].invert
    value: 0
    objectReference: {fileID: 0}
  - target: {fileID: 0}
    propertyPath: m_Axes.Array.data[27].type
    value: 0
    objectReference: {fileID: 0}
  - target: {fileID: 0}
    propertyPath: m_Axes.Array.data[27].axis
    value: 0
    objectReference: {fileID: 0}
  - target: {fileID: 0}
    propertyPath: m_Axes.Array.data[27].joyNum
    value: 0
    objectReference: {fileID: 0}
  - target: {fileID: 0}
    propertyPath: m_Axes.Array.data[28].m_Name
    value: b_input
    objectReference: {fileID: 0}
  - target: {fileID: 0}
    propertyPath: m_Axes.Array.data[28].descriptiveName
    value: 
    objectReference: {fileID: 0}
  - target: {fileID: 0}
    propertyPath: m_Axes.Array.data[28].descriptiveNegativeName
    value: 
    objectReference: {fileID: 0}
  - target: {fileID: 0}
    propertyPath: m_Axes.Array.data[28].negativeButton
    value: 
    objectReference: {fileID: 0}
  - target: {fileID: 0}
    propertyPath: m_Axes.Array.data[28].positiveButton
    value: joystick button 7
    objectReference: {fileID: 0}
  - target: {fileID: 0}
    propertyPath: m_Axes.Array.data[28].altNegativeButton
    value: 
    objectReference: {fileID: 0}
  - target: {fileID: 0}
    propertyPath: m_Axes.Array.data[28].altPositiveButton
    value: 
    objectReference: {fileID: 0}
  - target: {fileID: 0}
    propertyPath: m_Axes.Array.data[28].gravity
    value: 1000
    objectReference: {fileID: 0}
  - target: {fileID: 0}
    propertyPath: m_Axes.Array.data[28].dead
    value: 0.001
    objectReference: {fileID: 0}
  - target: {fileID: 0}
    propertyPath: m_Axes.Array.data[28].sensitivity
    value: 1000
    objectReference: {fileID: 0}
  - target: {fileID: 0}
    propertyPath: m_Axes.Array.data[28].snap
    value: 0
    objectReference: {fileID: 0}
  - target: {fileID: 0}
    propertyPath: m_Axes.Array.data[28].invert
    value: 0
    objectReference: {fileID: 0}
  - target: {fileID: 0}
    propertyPath: m_Axes.Array.data[28].type
    value: 0
    objectReference: {fileID: 0}
  - target: {fileID: 0}
    propertyPath: m_Axes.Array.data[28].axis
    value: 0
    objectReference: {fileID: 0}
  - target: {fileID: 0}
    propertyPath: m_Axes.Array.data[28].joyNum
    value: 0
    objectReference: {fileID: 0}
  - target: {fileID: 0}
    propertyPath: m_Axes.Array.data[29].m_Name
    value: A
    objectReference: {fileID: 0}
  - target: {fileID: 0}
    propertyPath: m_Axes.Array.data[29].descriptiveName
    value: 
    objectReference: {fileID: 0}
  - target: {fileID: 0}
    propertyPath: m_Axes.Array.data[29].descriptiveNegativeName
    value: 
    objectReference: {fileID: 0}
  - target: {fileID: 0}
    propertyPath: m_Axes.Array.data[29].negativeButton
    value: 
    objectReference: {fileID: 0}
  - target: {fileID: 0}
    propertyPath: m_Axes.Array.data[29].positiveButton
    value: joystick button 6
    objectReference: {fileID: 0}
  - target: {fileID: 0}
    propertyPath: m_Axes.Array.data[29].altNegativeButton
    value: 
    objectReference: {fileID: 0}
  - target: {fileID: 0}
    propertyPath: m_Axes.Array.data[29].altPositiveButton
    value: 
    objectReference: {fileID: 0}
  - target: {fileID: 0}
    propertyPath: m_Axes.Array.data[29].gravity
    value: 1000
    objectReference: {fileID: 0}
  - target: {fileID: 0}
    propertyPath: m_Axes.Array.data[29].dead
    value: 0.001
    objectReference: {fileID: 0}
  - target: {fileID: 0}
    propertyPath: m_Axes.Array.data[29].sensitivity
    value: 1000
    objectReference: {fileID: 0}
  - target: {fileID: 0}
    propertyPath: m_Axes.Array.data[29].snap
    value: 0
    objectReference: {fileID: 0}
  - target: {fileID: 0}
    propertyPath: m_Axes.Array.data[29].invert
    value: 0
    objectReference: {fileID: 0}
  - target: {fileID: 0}
    propertyPath: m_Axes.Array.data[29].type
    value: 0
    objectReference: {fileID: 0}
  - target: {fileID: 0}
    propertyPath: m_Axes.Array.data[29].axis
    value: 0
    objectReference: {fileID: 0}
  - target: {fileID: 0}
    propertyPath: m_Axes.Array.data[29].joyNum
    value: 0
    objectReference: {fileID: 0}
  - target: {fileID: 0}
    propertyPath: m_Axes.Array.data[30].m_Name
    value: L
    objectReference: {fileID: 0}
  - target: {fileID: 0}
    propertyPath: m_Axes.Array.data[30].descriptiveName
    value: 
    objectReference: {fileID: 0}
  - target: {fileID: 0}
    propertyPath: m_Axes.Array.data[30].descriptiveNegativeName
    value: 
    objectReference: {fileID: 0}
  - target: {fileID: 0}
    propertyPath: m_Axes.Array.data[30].negativeButton
    value: 
    objectReference: {fileID: 0}
  - target: {fileID: 0}
    propertyPath: m_Axes.Array.data[30].positiveButton
    value: joystick button 9
    objectReference: {fileID: 0}
  - target: {fileID: 0}
    propertyPath: m_Axes.Array.data[30].altNegativeButton
    value: 
    objectReference: {fileID: 0}
  - target: {fileID: 0}
    propertyPath: m_Axes.Array.data[30].altPositiveButton
    value: 
    objectReference: {fileID: 0}
  - target: {fileID: 0}
    propertyPath: m_Axes.Array.data[30].gravity
    value: 1000
    objectReference: {fileID: 0}
  - target: {fileID: 0}
    propertyPath: m_Axes.Array.data[30].dead
    value: 0.001
    objectReference: {fileID: 0}
  - target: {fileID: 0}
    propertyPath: m_Axes.Array.data[30].sensitivity
    value: 1000
    objectReference: {fileID: 0}
  - target: {fileID: 0}
    propertyPath: m_Axes.Array.data[30].snap
    value: 0
    objectReference: {fileID: 0}
  - target: {fileID: 0}
    propertyPath: m_Axes.Array.data[30].invert
    value: 0
    objectReference: {fileID: 0}
  - target: {fileID: 0}
    propertyPath: m_Axes.Array.data[30].type
    value: 0
    objectReference: {fileID: 0}
  - target: {fileID: 0}
    propertyPath: m_Axes.Array.data[30].axis
    value: 0
    objectReference: {fileID: 0}
  - target: {fileID: 0}
    propertyPath: m_Axes.Array.data[30].joyNum
    value: 0
    objectReference: {fileID: 0}
  - target: {fileID: 0}
    propertyPath: m_Axes.Array.data[31].m_Name
    value: LT
    objectReference: {fileID: 0}
  - target: {fileID: 0}
    propertyPath: m_Axes.Array.data[31].descriptiveName
    value: 
    objectReference: {fileID: 0}
  - target: {fileID: 0}
    propertyPath: m_Axes.Array.data[31].descriptiveNegativeName
    value: 
    objectReference: {fileID: 0}
  - target: {fileID: 0}
    propertyPath: m_Axes.Array.data[31].negativeButton
    value: 
    objectReference: {fileID: 0}
  - target: {fileID: 0}
    propertyPath: m_Axes.Array.data[31].positiveButton
    value: joystick button 0
    objectReference: {fileID: 0}
  - target: {fileID: 0}
    propertyPath: m_Axes.Array.data[31].altNegativeButton
    value: 
    objectReference: {fileID: 0}
  - target: {fileID: 0}
    propertyPath: m_Axes.Array.data[31].altPositiveButton
    value: 
    objectReference: {fileID: 0}
  - target: {fileID: 0}
    propertyPath: m_Axes.Array.data[31].gravity
    value: 1000
    objectReference: {fileID: 0}
  - target: {fileID: 0}
    propertyPath: m_Axes.Array.data[31].dead
    value: 0.001
    objectReference: {fileID: 0}
  - target: {fileID: 0}
    propertyPath: m_Axes.Array.data[31].sensitivity
    value: 1000
    objectReference: {fileID: 0}
  - target: {fileID: 0}
    propertyPath: m_Axes.Array.data[31].snap
    value: 0
    objectReference: {fileID: 0}
  - target: {fileID: 0}
    propertyPath: m_Axes.Array.data[31].invert
    value: 0
    objectReference: {fileID: 0}
  - target: {fileID: 0}
    propertyPath: m_Axes.Array.data[31].type
    value: 0
    objectReference: {fileID: 0}
  - target: {fileID: 0}
    propertyPath: m_Axes.Array.data[31].axis
    value: 0
    objectReference: {fileID: 0}
  - target: {fileID: 0}
    propertyPath: m_Axes.Array.data[31].joyNum
    value: 0
    objectReference: {fileID: 0}
  - target: {fileID: 0}
    propertyPath: m_Axes.Array.data[32].m_Name
    value: RT
    objectReference: {fileID: 0}
  - target: {fileID: 0}
    propertyPath: m_Axes.Array.data[32].descriptiveName
    value: 
    objectReference: {fileID: 0}
  - target: {fileID: 0}
    propertyPath: m_Axes.Array.data[32].descriptiveNegativeName
    value: 
    objectReference: {fileID: 0}
  - target: {fileID: 0}
    propertyPath: m_Axes.Array.data[32].negativeButton
    value: 
    objectReference: {fileID: 0}
  - target: {fileID: 0}
    propertyPath: m_Axes.Array.data[32].positiveButton
    value: joystick button 3
    objectReference: {fileID: 0}
  - target: {fileID: 0}
    propertyPath: m_Axes.Array.data[32].altNegativeButton
    value: 
    objectReference: {fileID: 0}
  - target: {fileID: 0}
    propertyPath: m_Axes.Array.data[32].altPositiveButton
    value: 
    objectReference: {fileID: 0}
  - target: {fileID: 0}
    propertyPath: m_Axes.Array.data[32].gravity
    value: 1000
    objectReference: {fileID: 0}
  - target: {fileID: 0}
    propertyPath: m_Axes.Array.data[32].dead
    value: 0.001
    objectReference: {fileID: 0}
  - target: {fileID: 0}
    propertyPath: m_Axes.Array.data[32].sensitivity
    value: 1000
    objectReference: {fileID: 0}
  - target: {fileID: 0}
    propertyPath: m_Axes.Array.data[32].snap
    value: 0
    objectReference: {fileID: 0}
  - target: {fileID: 0}
    propertyPath: m_Axes.Array.data[32].invert
    value: 0
    objectReference: {fileID: 0}
  - target: {fileID: 0}
    propertyPath: m_Axes.Array.data[32].type
    value: 0
    objectReference: {fileID: 0}
  - target: {fileID: 0}
    propertyPath: m_Axes.Array.data[32].axis
    value: 0
    objectReference: {fileID: 0}
  - target: {fileID: 0}
    propertyPath: m_Axes.Array.data[32].joyNum
    value: 0
    objectReference: {fileID: 0}
  - target: {fileID: 0}
    propertyPath: m_Axes.Array.data[33].m_Name
    value: Submit
    objectReference: {fileID: 0}
  - target: {fileID: 0}
    propertyPath: m_Axes.Array.data[33].descriptiveName
    value: 
    objectReference: {fileID: 0}
  - target: {fileID: 0}
    propertyPath: m_Axes.Array.data[33].descriptiveNegativeName
    value: 
    objectReference: {fileID: 0}
  - target: {fileID: 0}
    propertyPath: m_Axes.Array.data[33].negativeButton
    value: 
    objectReference: {fileID: 0}
  - target: {fileID: 0}
    propertyPath: m_Axes.Array.data[33].positiveButton
    value: return
    objectReference: {fileID: 0}
  - target: {fileID: 0}
    propertyPath: m_Axes.Array.data[33].altNegativeButton
    value: 
    objectReference: {fileID: 0}
  - target: {fileID: 0}
    propertyPath: m_Axes.Array.data[33].altPositiveButton
    value: joystick button 0
    objectReference: {fileID: 0}
  - target: {fileID: 0}
    propertyPath: m_Axes.Array.data[33].gravity
    value: 1000
    objectReference: {fileID: 0}
  - target: {fileID: 0}
    propertyPath: m_Axes.Array.data[33].dead
    value: 0.001
    objectReference: {fileID: 0}
  - target: {fileID: 0}
    propertyPath: m_Axes.Array.data[33].sensitivity
    value: 1000
    objectReference: {fileID: 0}
  - target: {fileID: 0}
    propertyPath: m_Axes.Array.data[33].snap
    value: 0
    objectReference: {fileID: 0}
  - target: {fileID: 0}
    propertyPath: m_Axes.Array.data[33].invert
    value: 0
    objectReference: {fileID: 0}
  - target: {fileID: 0}
    propertyPath: m_Axes.Array.data[33].type
    value: 0
    objectReference: {fileID: 0}
  - target: {fileID: 0}
    propertyPath: m_Axes.Array.data[33].axis
    value: 0
    objectReference: {fileID: 0}
  - target: {fileID: 0}
    propertyPath: m_Axes.Array.data[33].joyNum
    value: 0
    objectReference: {fileID: 0}
  - target: {fileID: 0}
    propertyPath: m_Axes.Array.data[34].m_Name
    value: Submit
    objectReference: {fileID: 0}
  - target: {fileID: 0}
    propertyPath: m_Axes.Array.data[34].descriptiveName
    value: 
    objectReference: {fileID: 0}
  - target: {fileID: 0}
    propertyPath: m_Axes.Array.data[34].descriptiveNegativeName
    value: 
    objectReference: {fileID: 0}
  - target: {fileID: 0}
    propertyPath: m_Axes.Array.data[34].negativeButton
    value: 
    objectReference: {fileID: 0}
  - target: {fileID: 0}
    propertyPath: m_Axes.Array.data[34].positiveButton
    value: enter
    objectReference: {fileID: 0}
  - target: {fileID: 0}
    propertyPath: m_Axes.Array.data[34].altNegativeButton
    value: 
    objectReference: {fileID: 0}
  - target: {fileID: 0}
    propertyPath: m_Axes.Array.data[34].altPositiveButton
    value: space
    objectReference: {fileID: 0}
  - target: {fileID: 0}
    propertyPath: m_Axes.Array.data[34].gravity
    value: 1000
    objectReference: {fileID: 0}
  - target: {fileID: 0}
    propertyPath: m_Axes.Array.data[34].dead
    value: 0.001
    objectReference: {fileID: 0}
  - target: {fileID: 0}
    propertyPath: m_Axes.Array.data[34].sensitivity
    value: 1000
    objectReference: {fileID: 0}
  - target: {fileID: 0}
    propertyPath: m_Axes.Array.data[34].snap
    value: 0
    objectReference: {fileID: 0}
  - target: {fileID: 0}
    propertyPath: m_Axes.Array.data[34].invert
    value: 0
    objectReference: {fileID: 0}
  - target: {fileID: 0}
    propertyPath: m_Axes.Array.data[34].type
    value: 0
    objectReference: {fileID: 0}
  - target: {fileID: 0}
    propertyPath: m_Axes.Array.data[34].axis
    value: 0
    objectReference: {fileID: 0}
  - target: {fileID: 0}
    propertyPath: m_Axes.Array.data[34].joyNum
    value: 0
    objectReference: {fileID: 0}
  - target: {fileID: 0}
    propertyPath: m_Axes.Array.data[35].m_Name
    value: Cancel
    objectReference: {fileID: 0}
  - target: {fileID: 0}
    propertyPath: m_Axes.Array.data[35].descriptiveName
    value: 
    objectReference: {fileID: 0}
  - target: {fileID: 0}
    propertyPath: m_Axes.Array.data[35].descriptiveNegativeName
    value: 
    objectReference: {fileID: 0}
  - target: {fileID: 0}
    propertyPath: m_Axes.Array.data[35].negativeButton
    value: 
    objectReference: {fileID: 0}
  - target: {fileID: 0}
    propertyPath: m_Axes.Array.data[35].positiveButton
    value: escape
    objectReference: {fileID: 0}
  - target: {fileID: 0}
    propertyPath: m_Axes.Array.data[35].altNegativeButton
    value: 
    objectReference: {fileID: 0}
  - target: {fileID: 0}
    propertyPath: m_Axes.Array.data[35].altPositiveButton
    value: joystick button 1
    objectReference: {fileID: 0}
  - target: {fileID: 0}
    propertyPath: m_Axes.Array.data[35].gravity
    value: 1000
    objectReference: {fileID: 0}
  - target: {fileID: 0}
    propertyPath: m_Axes.Array.data[35].dead
    value: 0.001
    objectReference: {fileID: 0}
  - target: {fileID: 0}
    propertyPath: m_Axes.Array.data[35].sensitivity
    value: 1000
    objectReference: {fileID: 0}
  - target: {fileID: 0}
    propertyPath: m_Axes.Array.data[35].snap
    value: 0
    objectReference: {fileID: 0}
  - target: {fileID: 0}
    propertyPath: m_Axes.Array.data[35].invert
    value: 0
    objectReference: {fileID: 0}
  - target: {fileID: 0}
    propertyPath: m_Axes.Array.data[35].type
    value: 0
    objectReference: {fileID: 0}
  - target: {fileID: 0}
    propertyPath: m_Axes.Array.data[35].axis
    value: 0
    objectReference: {fileID: 0}
  - target: {fileID: 0}
    propertyPath: m_Axes.Array.data[35].joyNum
    value: 0
    objectReference: {fileID: 0}
