%YAML 1.1
%TAG !u! tag:unity3d.com,2011:
--- !u!1001 &5467565485112841867
PrefabInstance:
  m_ObjectHideFlags: 0
  serializedVersion: 2
  m_Modification:
    m_TransformParent: {fileID: 0}
    m_Modifications:
    - target: {fileID: 5182291488163908646, guid: a419d233ba22e1a43b32544f1789cb76,
        type: 3}
      propertyPath: m_Name
      value: Bullet_temp 3
      objectReference: {fileID: 0}
    - target: {fileID: 5182291488163908646, guid: a419d233ba22e1a43b32544f1789cb76,
        type: 3}
      propertyPath: m_Layer
      value: 10
      objectReference: {fileID: 0}
    - target: {fileID: 5182291488163908646, guid: a419d233ba22e1a43b32544f1789cb76,
        type: 3}
      propertyPath: m_TagString
      value: Bubble
      objectReference: {fileID: 0}
    - target: {fileID: 5182291488163908636, guid: a419d233ba22e1a43b32544f1789cb76,
        type: 3}
      propertyPath: m_Materials.Array.data[0]
      value: 
      objectReference: {fileID: 2100000, guid: d7d21cb2052545c4aa3322de5eebd6f9, type: 2}
    - target: {fileID: 5182291488163908642, guid: a419d233ba22e1a43b32544f1789cb76,
        type: 3}
      propertyPath: m_LocalPosition.x
      value: 3.1
      objectReference: {fileID: 0}
    - target: {fileID: 5182291488163908642, guid: a419d233ba22e1a43b32544f1789cb76,
        type: 3}
      propertyPath: m_LocalPosition.y
      value: 1.36
      objectReference: {fileID: 0}
    - target: {fileID: 5182291488163908642, guid: a419d233ba22e1a43b32544f1789cb76,
        type: 3}
      propertyPath: m_LocalPosition.z
      value: -0.297
      objectReference: {fileID: 0}
    - target: {fileID: 5182291488163908642, guid: a419d233ba22e1a43b32544f1789cb76,
        type: 3}
      propertyPath: m_LocalRotation.x
      value: 0
      objectReference: {fileID: 0}
    - target: {fileID: 5182291488163908642, guid: a419d233ba22e1a43b32544f1789cb76,
        type: 3}
      propertyPath: m_LocalRotation.y
      value: 0
      objectReference: {fileID: 0}
    - target: {fileID: 5182291488163908642, guid: a419d233ba22e1a43b32544f1789cb76,
        type: 3}
      propertyPath: m_LocalRotation.z
      value: 0
      objectReference: {fileID: 0}
    - target: {fileID: 5182291488163908642, guid: a419d233ba22e1a43b32544f1789cb76,
        type: 3}
      propertyPath: m_LocalRotation.w
      value: 1
      objectReference: {fileID: 0}
    - target: {fileID: 5182291488163908642, guid: a419d233ba22e1a43b32544f1789cb76,
        type: 3}
      propertyPath: m_RootOrder
      value: 0
      objectReference: {fileID: 0}
    - target: {fileID: 5182291488163908642, guid: a419d233ba22e1a43b32544f1789cb76,
        type: 3}
      propertyPath: m_LocalEulerAnglesHint.x
      value: 0
      objectReference: {fileID: 0}
    - target: {fileID: 5182291488163908642, guid: a419d233ba22e1a43b32544f1789cb76,
        type: 3}
      propertyPath: m_LocalEulerAnglesHint.y
      value: 0
      objectReference: {fileID: 0}
    - target: {fileID: 5182291488163908642, guid: a419d233ba22e1a43b32544f1789cb76,
        type: 3}
      propertyPath: m_LocalEulerAnglesHint.z
      value: 0
      objectReference: {fileID: 0}
    m_RemovedComponents: []
  m_SourcePrefab: {fileID: 100100000, guid: a419d233ba22e1a43b32544f1789cb76, type: 3}
